<?xml version="1.0" encoding="utf-8"?>
<!-- Generator: Adobe Illustrator 15.0.0, SVG Export Plug-In . SVG Version: 6.00 Build 0)  -->
<!DOCTYPE svg PUBLIC "-//W3C//DTD SVG 1.1//EN" "http://www.w3.org/Graphics/SVG/1.1/DTD/svg11.dtd">
<svg version="1.1" id="Layer_1" xmlns="http://www.w3.org/2000/svg" xmlns:xlink="http://www.w3.org/1999/xlink" x="0px" y="0px"
	 width="32px" height="32px" viewBox="0 0 32 32" enable-background="new 0 0 32 32" xml:space="preserve">
<g>
	<g>
		<path fill="#24A4B7" d="M15.987,30c3.74,0,7.255-1.456,9.898-4.102c4.322-4.32,5.35-10.874,2.555-16.304
			c-0.253-0.491-0.855-0.684-1.348-0.432s-0.685,0.855-0.432,1.347c2.396,4.654,1.516,10.271-2.189,13.975
			C22.206,26.752,19.193,28,15.987,28c-3.205,0-6.219-1.248-8.484-3.516C5.236,22.218,3.987,19.205,3.987,16
			c0-3.206,1.248-6.219,3.516-8.485C9.77,5.249,12.781,4,15.987,4s6.219,1.249,8.484,3.515c0.392,0.391,1.023,0.391,1.414,0
			c0.392-0.391,0.392-1.023,0-1.414C23.242,3.457,19.728,2,15.987,2S8.731,3.457,6.089,6.101C3.443,8.745,1.987,12.26,1.987,16
			c0,3.739,1.456,7.255,4.102,9.898C8.731,28.544,12.247,30,15.987,30z"/>
	</g>
	<g>
		<path fill="#24A4B7" d="M20.999,21c-0.22,0-0.438-0.07-0.624-0.219l-5-4C15.138,16.591,15,16.304,15,16V8c0-0.552,0.448-1,1-1
			s1,0.448,1,1v7.52l4.625,3.699c0.432,0.346,0.501,0.975,0.156,1.406C21.583,20.871,21.293,21,20.999,21z"/>
	</g>
</g>
</svg>
