<?xml version="1.0" standalone="no"?>
<!DOCTYPE svg PUBLIC "-//W3C//DTD SVG 20010904//EN"
 "http://www.w3.org/TR/2001/REC-SVG-20010904/DTD/svg10.dtd">
<svg version="1.0" xmlns="http://www.w3.org/2000/svg"
 width="90.000000pt" height="90.000000pt" viewBox="0 0 90.000000 90.000000"
 preserveAspectRatio="xMidYMid meet">
<metadata>
Created by potrace 1.11, written by Peter Selinger 2001-2013
</metadata>
<g transform="translate(0.000000,90.000000) scale(0.100000,-0.100000)"
fill="#000000" stroke="none">
<path d="M650 748 c-18 -40 -48 -106 -67 -146 -18 -39 -33 -74 -33 -76 0 -2
-16 -39 -36 -83 -60 -131 -76 -166 -86 -193 -13 -34 -17 -24 -63 130 -20 69
-40 128 -43 132 -15 15 -97 19 -115 6 -17 -13 -16 -21 33 -158 89 -250 102
-270 175 -270 28 0 44 7 66 31 16 17 29 36 29 41 0 6 6 24 14 41 36 80 149
406 161 467 13 61 17 150 8 150 -6 0 -25 -33 -43 -72z"/>
</g>
</svg>
