<?xml version="1.0" standalone="no"?>
<!DOCTYPE svg PUBLIC "-//W3C//DTD SVG 1.1//EN" "http://www.w3.org/Graphics/SVG/1.1/DTD/svg11.dtd" >
<svg xmlns="http://www.w3.org/2000/svg">
<metadata>Generated by IcoMoon</metadata>
<defs>
<font id="icomoon" horiz-adv-x="1024">
<font-face units-per-em="1024" ascent="960" descent="-64" />
<missing-glyph horiz-adv-x="1024" />
<glyph unicode="&#x20;" horiz-adv-x="512" d="" />
<glyph unicode="&#xe900;" glyph-name="compeling" d="M544.148 478.259v182.601c18.225-6.751 34.107-19.17 45.126-35.926 9.795-14.797 29.734-18.96 44.566-9.165 14.797 9.76 18.925 29.699 9.13 44.531-23.053 35.086-58.698 58.908-98.821 67.304v51.072c0 17.77-14.377 32.148-32.148 32.148s-32.148-14.412-32.148-32.148v-51.002c-71.186-14.832-124.847-78.043-124.847-153.567s53.661-138.77 124.847-153.602v-182.566c-18.225 6.681-34.107 19.135-45.126 35.856-9.76 14.902-29.734 18.995-44.531 9.235s-18.925-29.734-9.165-44.531c23.122-35.121 58.698-58.908 98.856-67.304v-51.107c0-17.77 14.377-32.183 32.148-32.183s32.148 14.412 32.148 32.183v50.967c71.186 14.902 124.812 78.078 124.812 153.602-0.035 75.594-53.661 138.77-124.847 153.602v0zM419.335 574.142c0 39.738 25.256 73.6 60.517 86.718v-173.436c-35.261 13.048-60.517 46.945-60.517 86.718zM544.148 237.974v173.401c35.296-13.048 60.482-46.945 60.482-86.718s-25.186-73.635-60.482-86.683zM511.79-42.154c130.934 0 253.997 50.967 346.557 143.597 151.328 151.188 187.288 380.629 89.447 570.751-8.85 17.211-29.909 23.927-47.189 15.112-17.246-8.815-23.997-29.909-15.112-47.154 83.85-162.942 53.066-359.57-76.678-489.245-79.302-79.407-184.77-123.063-297.024-123.063-112.219 0-217.722 43.656-297.024 123.063-79.372 79.337-123.098 184.91-123.098 297.094 0 112.254 43.691 217.757 123.063 297.059 79.372 79.337 184.805 123.063 297.059 123.063s217.722-43.726 297.024-123.098c13.748-13.713 35.856-13.713 49.533 0 13.748 13.713 13.748 35.821 0 49.533-92.56 92.56-215.623 143.562-346.557 143.562s-254.032-51.002-346.522-143.562c-92.665-92.56-143.632-215.623-143.632-346.557 0-130.899 50.967-253.997 143.597-346.522 92.525-92.665 215.588-143.632 346.557-143.632z" />
<glyph unicode="&#xe901;" glyph-name="fast" d="M511.545-42.153c130.941 0 254.004 50.976 346.538 143.615 151.317 151.247 187.309 380.709 89.453 570.818-8.858 17.19-29.934 23.947-47.195 15.125s-23.982-29.934-15.125-47.16c83.886-162.941 53.077-359.597-76.639-489.278-79.3-79.405-184.788-123.098-297.033-123.098-112.21 0-217.733 43.694-297.033 123.098-79.37 79.335-123.098 184.823-123.098 297.033 0 112.245 43.694 217.733 123.098 297.068 79.37 79.335 184.788 123.063 297.033 123.063s217.733-43.729 297.033-123.063c13.724-13.689 35.816-13.689 49.505 0 13.724 13.689 13.724 35.816 0 49.505-92.534 92.569-215.562 143.58-346.538 143.58s-254.039-51.011-346.538-143.58c-92.639-92.569-143.615-215.632-143.615-346.573 0-130.906 50.976-254.004 143.615-346.538 92.499-92.639 215.597-143.615 346.538-143.615zM687.020 272.945c-7.702 0-15.335 2.451-21.847 7.667l-175.055 140.044c-8.298 6.652-13.129 16.7-13.129 27.344v280.088c0 19.326 15.685 35.011 35.011 35.011s35.011-15.685 35.011-35.011v-263.282l161.926-129.505c15.125-12.114 17.54-34.136 5.462-49.225-6.932-8.613-17.085-13.129-27.379-13.129z" />
<glyph unicode="&#xe902;" glyph-name="money_2" horiz-adv-x="1448" d="M1026.149 529.455c-0.027 0.211-0.040 0.428-0.072 0.635-0.149 1.046-0.349 2.086-0.629 3.114-0.003 0.011-0.008 0.021-0.011 0.035-0.263 0.961-0.6 1.909-0.978 2.847-0.109 0.269-0.229 0.525-0.346 0.791-0.299 0.677-0.633 1.343-0.996 1.999-0.157 0.286-0.309 0.573-0.48 0.855-0.093 0.152-0.163 0.309-0.259 0.463-0.381 0.607-0.802 1.178-1.226 1.744-0.080 0.106-0.144 0.215-0.224 0.32-0.647 0.836-1.343 1.614-2.074 2.352-0.138 0.138-0.288 0.269-0.429 0.403-0.637 0.612-1.295 1.186-1.982 1.724-0.176 0.136-0.347 0.274-0.525 0.405-0.919 0.683-1.87 1.319-2.858 1.87l-380.649 216.369 219.164 138.008 367.425-208.849-154.74-97.44c-12.077-7.6-15.703-23.555-8.1-35.628 7.603-12.077 23.553-15.703 35.629-8.1l191.264 120.436c7.69 4.838 12.27 13.362 12.064 22.446-0.203 9.084-5.163 17.389-13.065 21.878l-418.389 237.824c-8.274 4.707-18.474 4.476-26.536-0.597l-268.593-169.135c-0.054-0.035-0.112-0.069-0.165-0.104l-134.218-84.517c-0.061-0.038-0.123-0.077-0.184-0.117l-268.78-169.247c-7.69-4.838-12.27-13.364-12.064-22.448 0.203-9.084 5.163-17.387 13.065-21.878l418.394-237.826c3.964-2.256 8.367-3.378 12.765-3.378 4.789 0 9.568 1.332 13.767 3.974l191.264 120.439c12.077 7.6 15.703 23.555 8.098 35.629-7.599 12.077-23.555 15.705-35.629 8.098l-178.176-112.196-367.426 208.855 219.169 138.009 391.876-222.749v-295.016c0-9.411 5.112-18.074 13.351-22.621 3.892-2.149 8.194-3.218 12.488-3.218 4.79 0 9.569 1.329 13.767 3.974l134.392 84.626c7.512 4.731 12.070 12.986 12.070 21.862v310.050c0 0.152-0.027 0.298-0.032 0.449-0.016 0.86-0.072 1.717-0.173 2.578zM891.961 178.553v263.247c0 9.295-4.992 17.869-13.071 22.461l-380.872 216.494 84.781 53.387 367.423-208.85-32.171-20.257c-12.077-7.6-15.701-23.555-8.098-35.629 4.912-7.8 13.305-12.073 21.889-12.073 4.702 0 9.467 1.284 13.74 3.975l29.089 18.317v-248.985l-82.713-52.086zM1255.524 614.19l-191.263-120.435c-12.077-7.603-15.703-23.556-8.098-35.629 4.909-7.802 13.305-12.075 21.889-12.075 4.702 0 9.467 1.286 13.74 3.977l191.263 120.435c12.077 7.6 15.703 23.555 8.098 35.629-7.599 12.077-23.555 15.703-35.629 8.098zM774.844 311.505l-178.179-112.196-404.946 230.176c-12.397 7.048-28.178 2.719-35.229-9.694-7.051-12.405-2.712-28.178 9.696-35.229l418.394-237.824c3.961-2.256 8.364-3.378 12.765-3.378 4.789 0 9.568 1.332 13.767 3.974l191.264 120.439c12.075 7.6 15.701 23.555 8.098 35.629-7.6 12.080-23.561 15.708-35.631 8.101zM1255.524 510.84l-191.263-120.436c-12.077-7.6-15.703-23.555-8.098-35.628 4.909-7.802 13.305-12.075 21.889-12.075 4.702 0 9.467 1.284 13.74 3.975l191.263 120.436c12.077 7.6 15.703 23.555 8.098 35.629-7.599 12.078-23.555 15.703-35.629 8.098zM774.844 208.156l-178.179-112.196-404.946 230.176c-12.397 7.048-28.178 2.719-35.229-9.694-7.051-12.405-2.712-28.178 9.696-35.229l418.394-237.824c3.961-2.256 8.364-3.378 12.765-3.378 4.789 0 9.568 1.332 13.767 3.974l191.264 120.439c12.075 7.6 15.701 23.555 8.098 35.629-7.6 12.083-23.561 15.708-35.631 8.101zM1255.524 407.487l-191.263-120.435c-12.077-7.6-15.703-23.555-8.098-35.629 4.909-7.8 13.305-12.073 21.889-12.073 4.702 0 9.467 1.284 13.74 3.975l191.263 120.435c12.077 7.603 15.703 23.556 8.098 35.629-7.599 12.078-23.555 15.703-35.629 8.098zM774.844 104.806l-178.179-112.196-404.946 230.176c-12.397 7.048-28.178 2.719-35.229-9.694-7.051-12.407-2.712-28.178 9.696-35.231l418.394-237.821c3.961-2.256 8.364-3.378 12.765-3.378 4.789 0 9.568 1.329 13.767 3.974l191.264 120.439c12.075 7.6 15.701 23.555 8.098 35.629-7.6 12.080-23.561 15.708-35.631 8.101z" />
<glyph unicode="&#xe903;" glyph-name="monitor_1" horiz-adv-x="1448" d="M1229.451 959.999h-1010.657c-38.259 0-69.392-31.128-69.392-69.392v-697.787c0-38.261 31.13-69.392 69.392-69.392h346.315v-50.49c0-46.286-37.659-83.942-83.945-83.942h-76.321c-14.633 0-26.5-11.864-26.5-26.498 0-14.636 11.867-26.5 26.5-26.5h638.556c14.633 0 26.498 11.864 26.498 26.5 0 14.634-11.866 26.498-26.498 26.498h-76.325c-46.286 0-83.942 37.656-83.942 83.942v50.488h346.313c38.261 0 69.393 31.128 69.393 69.392v697.789c0.003 38.263-31.127 69.392-69.387 69.392zM589.243-11.006c18.063 23.205 28.863 52.327 28.863 83.945v50.49h212.035v-50.49c0-31.616 10.802-60.74 28.863-83.945h-269.762zM1245.844 192.82c0-9.043-7.355-16.397-16.397-16.397h-1010.654c-9.041 0-16.397 7.355-16.397 16.397v106.437h1043.447v-106.437zM1240.735 352.257h-1038.334v538.352c0 9.041 7.355 16.397 16.397 16.397h1010.649c9.043 0 16.4-7.357 16.4-16.397v-538.353h-5.111zM752.726 254.244c0-15.794-12.803-28.597-28.597-28.597s-28.597 12.803-28.597 28.597c0 15.794 12.803 28.597 28.597 28.597s28.597-12.803 28.597-28.597zM918.002 490.811c0 10.223-8.287 18.508-18.512 18.512h-185.020c-10.223 0-18.512-8.287-18.512-18.512 0-5.113 2.072-9.74 5.424-13.092s7.979-5.422 13.087-5.422h185.020c10.22 0.002 18.512 8.292 18.512 18.513zM803.45 436.794c0 10.224-8.287 18.51-18.512 18.512h-70.469c-10.223 0-18.512-8.287-18.512-18.512 0-5.111 2.072-9.738 5.424-13.087 3.352-3.352 7.979-5.424 13.087-5.424h70.469c10.218 0 18.512 8.29 18.512 18.512zM565.24 453.709l62.938 62.938c-11.466 9.775-26.324 15.687-42.568 15.687-26.766 0-49.775-16.019-60.005-38.987l39.635-39.638zM576.294 430.169c-0.815-0.815-1.309-1.459-2.163-2.276-1.749-1.67-5-3.647-8.245-3.555-0.116-0.003-0.23-0.019-0.343-0.019-3.134 0-6.732 1.185-9.121 3.574-0.834 0.834-1.273 1.313-2.234 2.276l-34.192 34.192c1.212-35.205 30.114-63.375 65.614-63.375 36.27 0 65.673 29.402 65.673 65.673 0 11.142-2.783 21.628-7.679 30.819l-67.308-67.309zM1032.554 650.314c0 10.223-8.287 18.508-18.512 18.512h-299.569c-10.223 0-18.512-8.287-18.512-18.512 0-5.113 2.072-9.74 5.424-13.092 3.352-3.351 7.979-5.422 13.087-5.422h299.572c10.218 0 18.51 8.29 18.51 18.513zM963.822 596.295c0 10.224-8.285 18.51-18.512 18.512h-230.839c-10.223 0-18.512-8.287-18.512-18.512 0-5.111 2.072-9.735 5.424-13.087s7.979-5.424 13.087-5.424h230.839c10.22 0 18.512 8.29 18.512 18.512zM565.24 613.21l62.938 62.938c-11.466 9.775-26.323 15.685-42.568 15.685-26.766 0-49.775-16.019-60.005-38.987l39.635-39.635zM576.294 589.672c-0.815-0.815-1.309-1.459-2.163-2.276-1.749-1.67-5-3.647-8.245-3.555-0.116-0.002-0.23-0.017-0.343-0.017-3.134 0-6.732 1.185-9.121 3.574-0.834 0.834-1.273 1.313-2.234 2.276l-34.192 34.192c1.212-35.205 30.114-63.375 65.614-63.375 36.27 0 65.673 29.402 65.673 65.673 0 11.142-2.783 21.628-7.679 30.819l-67.308-67.312zM826.359 809.815c0 10.224-8.285 18.508-18.512 18.512h-93.377c-10.223 0-18.512-8.287-18.512-18.512 0-5.113 2.072-9.738 5.424-13.089s7.979-5.422 13.087-5.422h93.377c10.22 0 18.512 8.29 18.512 18.512zM940.912 755.798c0 10.224-8.285 18.51-18.512 18.512h-207.929c-10.223 0-18.512-8.287-18.512-18.512 0-5.111 2.072-9.735 5.424-13.087s7.979-5.424 13.087-5.424h207.929c10.22 0 18.512 8.29 18.512 18.512zM576.294 749.173c-0.815-0.815-1.309-1.458-2.163-2.276-1.749-1.67-5-3.647-8.245-3.555-0.116-0.002-0.23-0.017-0.343-0.017-3.134 0-6.732 1.185-9.121 3.572-0.834 0.836-1.273 1.314-2.234 2.276l-34.192 34.192c1.212-35.205 30.114-63.375 65.614-63.375 36.27 0 65.673 29.4 65.673 65.67 0 11.142-2.783 21.628-7.679 30.819l-67.308-67.308zM565.24 772.713l62.938 62.938c-11.466 9.775-26.323 15.685-42.568 15.685-26.766 0-49.775-16.019-60.005-38.987l39.635-39.635z" />
<glyph unicode="&#xe904;" glyph-name="monitor_2" horiz-adv-x="1448" d="M490.067 804.189c-9.006 0-16.309-7.303-16.309-16.31 0-4.505 1.825-8.581 4.778-11.535 2.952-2.952 7.029-4.777 11.529-4.777h43.616c-1.255 5.234-1.936 10.692-1.936 16.31 0 5.62 0.684 11.076 1.936 16.31h-43.616zM958.169 804.189h-287.497c-7.094 24.953-30.037 43.235-57.265 43.235-32.886 0-59.545-26.66-59.545-59.545s26.66-59.545 59.545-59.545c27.227 0 50.169 18.282 57.265 43.235h287.497c9.004 0 16.31 7.305 16.31 16.312s-7.301 16.304-16.31 16.309zM958.169 642.566h-32.302c-7.096 24.953-30.037 43.233-57.265 43.233-32.886 0-59.544-26.66-59.544-59.545s26.658-59.545 59.544-59.545c27.229 0 50.169 18.282 57.265 43.235h32.302c9.004 0 16.31 7.303 16.31 16.312 0 9.008-7.301 16.306-16.31 16.31zM490.067 642.566c-9.006 0-16.309-7.303-16.309-16.31 0-4.505 1.825-8.581 4.778-11.535 2.952-2.95 7.029-4.777 11.529-4.777h298.808c-1.253 5.234-1.936 10.692-1.936 16.31s0.684 11.076 1.936 16.312h-298.808zM958.169 480.944h-219.445c-7.094 24.953-30.037 43.233-57.265 43.233-32.886 0-59.545-26.66-59.545-59.545s26.66-59.545 59.545-59.545c27.227 0 50.171 18.282 57.265 43.235h219.445c9.004 0 16.31 7.305 16.31 16.312 0 9.006-7.301 16.306-16.31 16.31zM490.067 480.944c-9.006 0-16.309-7.305-16.309-16.31 0-4.505 1.825-8.581 4.778-11.535 2.952-2.95 7.029-4.778 11.529-4.778h111.668c-1.255 5.236-1.936 10.692-1.936 16.31s0.684 11.076 1.936 16.312h-111.668zM1229.451 959.999h-1010.657c-38.259 0-69.392-31.128-69.392-69.392v-697.787c0-38.261 31.13-69.392 69.392-69.392h346.315v-50.49c0-46.286-37.659-83.942-83.945-83.942h-76.321c-14.633 0-26.5-11.864-26.5-26.498 0-14.636 11.867-26.5 26.5-26.5h638.556c14.633 0 26.498 11.864 26.498 26.5 0 14.634-11.866 26.498-26.498 26.498h-76.325c-46.286 0-83.942 37.656-83.942 83.942v50.488h346.313c38.261 0 69.393 31.128 69.393 69.392v697.789c0.003 38.263-31.127 69.392-69.387 69.392zM589.243-11.006c18.063 23.205 28.863 52.327 28.863 83.945v50.49h212.035v-50.49c0-31.616 10.802-60.74 28.863-83.945h-269.762zM1245.844 192.82c0-9.043-7.355-16.397-16.397-16.397h-1010.654c-9.041 0-16.397 7.355-16.397 16.397v106.437h1043.447v-106.437zM1240.735 352.257h-1038.334v538.352c0 9.041 7.355 16.397 16.397 16.397h1010.649c9.043 0 16.4-7.357 16.4-16.397v-538.353h-5.111zM752.726 254.244c0-15.794-12.803-28.597-28.597-28.597s-28.597 12.803-28.597 28.597c0 15.794 12.803 28.597 28.597 28.597s28.597-12.803 28.597-28.597z" />
<glyph unicode="&#xe905;" glyph-name="reputation" d="M903.254 596.932l-77.386 80.017 15.607 110.221c2.343 16.832-9.047 32.547-25.843 35.503l-109.645 19.247-52.191 98.363c-8.002 15.030-26.456 21.013-41.739 13.552l-100.057-48.875-100.021 48.875c-15.283 7.497-33.773 1.478-41.739-13.552l-52.155-98.363-109.681-19.211c-16.796-2.956-28.186-18.671-25.807-35.503l15.607-110.221-77.422-80.017c-11.858-12.255-11.858-31.646 0-43.901l77.422-80.017-15.607-110.33c-2.379-16.832 9.011-32.547 25.807-35.467l87.766-15.427v-341.369c0-10.957 5.659-21.086 14.958-26.816 5.082-3.136 10.849-4.722 16.58-4.722 4.83 0 9.66 1.117 14.129 3.352l170.162 85.027 170.126-85.027c9.84-4.938 21.446-4.361 30.745 1.37 9.335 5.767 14.994 15.859 14.994 26.816v341.369l87.766 15.427c16.796 2.92 28.186 18.671 25.843 35.503l-15.607 110.294 77.386 80.017c11.858 12.219 11.858 31.61 0 43.865zM526.129 90.807c-8.903 4.469-19.319 4.469-28.258 0l-138.588-69.276v208.765l10.957-20.653c8.002-15.030 26.456-21.013 41.775-13.552l99.985 48.911 100.021-48.911c4.433-2.199 9.155-3.208 13.841-3.208 11.318 0 22.275 6.127 27.898 16.76l10.993 20.617v-208.729l-138.624 69.276zM769.712 505.85c-6.776-6.992-9.912-16.76-8.542-26.384l13.516-95.371-94.795-16.616c-9.624-1.658-17.878-7.677-22.455-16.256l-45.127-84.991-86.433 42.279c-4.361 2.163-9.119 3.208-13.877 3.208s-9.516-1.045-13.877-3.208l-86.469-42.279-45.091 84.991c-4.541 8.578-12.832 14.598-22.455 16.256l-94.795 16.616 13.48 95.371c1.334 9.624-1.802 19.391-8.578 26.384l-66.933 69.132 66.933 69.168c6.776 6.992 9.912 16.724 8.578 26.348l-13.444 95.299 94.795 16.616c9.588 1.694 17.878 7.713 22.455 16.328l45.091 85.027 86.433-42.243c8.759-4.289 18.959-4.289 27.754 0l86.433 42.243 45.127-85.027c4.578-8.614 12.832-14.634 22.455-16.328l94.795-16.616-13.516-95.263c-1.37-9.624 1.802-19.355 8.542-26.348l66.933-69.168-66.933-69.168zM512 790.811c-119.016 0-215.865-96.849-215.865-215.829 0-119.016 96.849-215.901 215.865-215.901 119.052 0 215.865 96.885 215.865 215.901s-96.777 215.829-215.865 215.829zM512 422.229c-84.234 0-152.753 68.519-152.753 152.753s68.555 152.717 152.753 152.717c84.162 0 152.753-68.483 152.753-152.717s-68.555-152.753-152.753-152.753zM576.338 655.071l-93.209-93.209-35.503 35.431c-12.327 12.327-32.295 12.291-44.622-0.036-12.291-12.327-12.291-32.295 0.036-44.658l57.778-57.742c6.163-6.127 14.273-9.227 22.311-9.227 8.11 0 16.148 3.064 22.347 9.263l115.52 115.484c12.363 12.327 12.363 32.295 0.036 44.658-12.363 12.363-32.331 12.363-44.694 0.036z" />
<glyph unicode="&#xe906;" glyph-name="secure" d="M934.395 550.412h-115.199v102.412c0 169.38-137.816 307.196-307.196 307.196s-307.196-137.816-307.196-307.196v-102.412h-115.199c-21.197 0-38.4-17.203-38.4-38.4s17.203-38.4 38.4-38.4h806.39v-460.794h-767.99v345.596c0 21.235-17.203 38.4-38.4 38.4s-38.4-17.165-38.4-38.4v-383.995c0-21.235 17.203-38.4 38.4-38.4h844.789c21.235 0 38.4 17.165 38.4 38.4v537.593c0 21.158-17.165 38.4-38.4 38.4zM281.603 652.785c0 127.064 103.333 230.397 230.397 230.397s230.397-103.333 230.397-230.397v-102.412h-460.794v102.412zM665.598 243.177c0 84.748-68.889 153.598-153.598 153.598s-153.598-68.85-153.598-153.598c0-84.671 68.889-153.598 153.598-153.598s153.598 68.927 153.598 153.598zM435.201 243.177c0 42.393 34.406 76.799 76.799 76.799s76.799-34.406 76.799-76.799-34.406-76.799-76.799-76.799-76.799 34.406-76.799 76.799z" />
<glyph unicode="&#xe907;" glyph-name="support" d="M991.602 917.518h-959.204c-17.915 0-32.398-14.482-32.398-32.398v-664.656c0-17.88 14.482-32.398 32.398-32.398h239.73c17.88 0 32.398 14.518 32.398 32.398s-14.518 32.398-32.398 32.398h-207.332v599.896h894.409v-599.896h-384.769c-6.58 0-12.981-2.038-18.452-5.793l-302.308-209.513c-14.697-10.12-18.344-30.395-8.189-45.128 6.294-9.083 16.378-13.982 26.676-13.982 6.365 0 12.802 1.967 18.452 5.793l293.941 203.792h407.047c17.88 0 32.398 14.447 32.398 32.398v664.692c0 17.915-14.518 32.398-32.398 32.398zM631.936 659.98c17.88 0 32.398 14.518 32.398 32.398s-14.518 32.398-32.398 32.398h-239.801c-17.88 0-32.398-14.518-32.398-32.398s14.482-32.398 32.398-32.398h239.801zM239.837 552.774c0-17.88 14.482-32.398 32.362-32.398h479.566c17.951 0 32.469 14.482 32.469 32.398 0 17.88-14.518 32.434-32.469 32.434h-479.566c-17.88 0-32.362-14.554-32.362-32.434zM272.199 380.808h479.566c17.951 0 32.469 14.518 32.469 32.398s-14.518 32.398-32.469 32.398h-479.566c-17.88 0-32.362-14.482-32.362-32.398 0-17.88 14.482-32.398 32.362-32.398z" />
<glyph unicode="&#xe908;" glyph-name="technology" d="M511.545-42.153c130.941 0 254.004 50.976 346.538 143.615 151.317 151.247 187.309 380.709 89.453 570.818-8.858 17.19-29.934 23.947-47.195 15.125s-23.982-29.934-15.125-47.16c83.886-162.941 53.077-359.597-76.639-489.278-79.3-79.405-184.788-123.098-297.033-123.098-112.21 0-217.733 43.694-297.033 123.098-79.37 79.335-123.098 184.823-123.098 297.033 0 112.245 43.694 217.733 123.098 297.068 79.37 79.335 184.788 123.063 297.033 123.063s217.733-43.729 297.033-123.063c13.724-13.689 35.816-13.689 49.505 0 13.724 13.689 13.724 35.816 0 49.505-92.534 92.569-215.562 143.58-346.538 143.58s-254.039-51.011-346.538-143.58c-92.639-92.569-143.615-215.632-143.615-346.573 0-130.906 50.976-254.004 143.615-346.538 92.499-92.639 215.597-143.615 346.538-143.615zM520.543 632.683c-90.503 0-164.166-73.663-164.166-164.166 0-37.077 12.149-72.053 35.116-101.252 4.516-5.742 9.313-11.274 14.354-17.085l0.28-0.35c15.44-17.926 31.37-36.446 37.357-58.188 1.365-5.077 1.54-14.635 1.47-22.022v-12.499c0-11.484 9.313-20.797 20.761-20.797h108.814c11.484 0 20.797 9.313 20.797 20.797v12.639c-0.070 9.698 0.42 16.7 1.435 20.376 6.022 21.672 23.667 42.468 39.387 60.919l0.7 0.805c4.586 5.322 8.823 10.398 12.709 15.335 23.037 29.199 35.221 64.21 35.221 101.322-0.035 90.503-73.698 164.166-164.236 164.166zM616.893 392.893c-3.431-4.306-7.457-9.103-11.764-14.074l-0.805-0.945c-18.381-21.672-39.177-46.144-47.65-76.709-1.225-4.306-2.521-10.818-2.871-23.247h-67.361c-0.28 13.199-1.611 20.026-2.871 24.543-8.473 30.985-29.269 55.107-45.969 74.538l-0.28 0.28c-4.726 5.532-9.173 10.678-13.164 15.72-17.155 21.742-26.223 47.93-26.223 75.554 0 67.606 55.002 122.608 122.608 122.608 67.571 0 122.608-55.002 122.608-122.608 0-27.764-9.103-53.847-26.258-75.659zM574.495 222.389h-108.814c-11.484 0-20.761-9.383-20.761-20.797 0-11.484 9.313-20.797 20.761-20.797h108.814c11.484 0 20.797 9.313 20.797 20.797 0 11.414-9.313 20.797-20.797 20.797zM547.291 168.368h-54.407c-11.484 0-20.797-9.313-20.797-20.797s9.313-20.726 20.797-20.726h54.407c11.484 0 20.797 9.243 20.797 20.726s-9.313 20.797-20.797 20.797zM807.352 489.278h-71.737c-11.484 0-20.797-9.348-20.797-20.797 0-11.484 9.313-20.797 20.797-20.797h71.737c11.484 0 20.797 9.313 20.797 20.797-0.035 11.484-9.313 20.797-20.797 20.797zM326.232 468.481c0 11.449-9.313 20.797-20.797 20.797h-71.702c-11.484 0-20.797-9.348-20.797-20.797 0-11.484 9.313-20.797 20.797-20.797h71.702c11.484 0.035 20.797 9.313 20.797 20.797zM520.543 662.792c11.449 0 20.797 9.313 20.797 20.761v71.737c0 11.484-9.383 20.797-20.797 20.797-11.449 0-20.797-9.313-20.797-20.797v-71.737c0-11.449 9.348-20.761 20.797-20.761zM687.335 331.063c-8.123 8.123-21.252 8.123-29.409 0-8.123-8.053-8.123-21.252 0-29.339l50.661-50.731c4.096-4.026 9.383-6.092 14.705-6.092s10.678 2.066 14.705 6.092c8.123 8.123 8.123 21.252 0 29.409l-50.661 50.661zM353.716 605.899c4.061-4.061 9.383-6.127 14.705-6.127s10.643 2.066 14.705 6.092c8.123 8.123 8.123 21.287 0 29.409l-50.661 50.696c-8.123 8.088-21.287 8.088-29.374 0-8.123-8.088-8.123-21.252 0-29.409l50.626-50.661zM353.751 331.063l-50.696-50.661c-8.123-8.123-8.088-21.252 0-29.409 4.061-4.026 9.383-6.092 14.705-6.092s10.643 2.066 14.705 6.092l50.696 50.731c8.123 8.053 8.088 21.252 0 29.339-8.123 8.158-21.287 8.158-29.409 0zM672.63 599.807c5.322 0 10.678 2.031 14.705 6.092l50.661 50.661c8.123 8.123 8.123 21.287 0 29.409-8.053 8.088-21.252 8.088-29.409 0l-50.661-50.696c-8.123-8.088-8.123-21.252 0-29.374 4.026-4.061 9.383-6.092 14.705-6.092z" />
</font></defs></svg>